CarParkingSystem/simulation/qsim/CarParkingSystem.msim.vcd
$comment
	File created using the following command:
		vcd file CarParkingSystem.msim.vcd -direction
$end
$date
	Sun Mar 19 01:25:35 2023
$end
$version
	ModelSim Version 2020.1
$end
$timescale
	1ps
$end

$scope module carparkingsystem_vhd_vec_tst $end
$var wire 1 ! alarm $end
$var wire 1 " clk $end
$var wire 1 # count_out [1] $end
$var wire 1 $ count_out [0] $end
$var wire 1 % entrance_LED $end
$var wire 1 & entrance_sensor $end
$var wire 1 ' gate_LED $end
$var wire 1 ( IDcard $end
$var wire 1 ) IDcard_LED $end
$var wire 1 * password_in [7] $end
$var wire 1 + password_in [6] $end
$var wire 1 , password_in [5] $end
$var wire 1 - password_in [4] $end
$var wire 1 . password_in [3] $end
$var wire 1 / password_in [2] $end
$var wire 1 0 password_in [1] $end
$var wire 1 1 password_in [0] $end
$var wire 1 2 password_LED $end
$var wire 1 3 reset $end

$scope module i1 $end
$var wire 1 4 gnd $end
$var wire 1 5 vcc $end
$var wire 1 6 unknown $end
$var wire 1 7 devoe $end
$var wire 1 8 devclrn $end
$var wire 1 9 devpor $end
$var wire 1 : ww_devoe $end
$var wire 1 ; ww_devclrn $end
$var wire 1 < ww_devpor $end
$var wire 1 = ww_clk $end
$var wire 1 > ww_reset $end
$var wire 1 ? ww_entrance_sensor $end
$var wire 1 @ ww_password_in [7] $end
$var wire 1 A ww_password_in [6] $end
$var wire 1 B ww_password_in [5] $end
$var wire 1 C ww_password_in [4] $end
$var wire 1 D ww_password_in [3] $end
$var wire 1 E ww_password_in [2] $end
$var wire 1 F ww_password_in [1] $end
$var wire 1 G ww_password_in [0] $end
$var wire 1 H ww_IDcard $end
$var wire 1 I ww_entrance_LED $end
$var wire 1 J ww_password_LED $end
$var wire 1 K ww_IDcard_LED $end
$var wire 1 L ww_gate_LED $end
$var wire 1 M ww_alarm $end
$var wire 1 N ww_count_out [1] $end
$var wire 1 O ww_count_out [0] $end
$var wire 1 P \reset~inputclkctrl_INCLK_bus\ [3] $end
$var wire 1 Q \reset~inputclkctrl_INCLK_bus\ [2] $end
$var wire 1 R \reset~inputclkctrl_INCLK_bus\ [1] $end
$var wire 1 S \reset~inputclkctrl_INCLK_bus\ [0] $end
$var wire 1 T \clk~inputclkctrl_INCLK_bus\ [3] $end
$var wire 1 U \clk~inputclkctrl_INCLK_bus\ [2] $end
$var wire 1 V \clk~inputclkctrl_INCLK_bus\ [1] $end
$var wire 1 W \clk~inputclkctrl_INCLK_bus\ [0] $end
$var wire 1 X \entrance_LED~output_o\ $end
$var wire 1 Y \password_LED~output_o\ $end
$var wire 1 Z \IDcard_LED~output_o\ $end
$var wire 1 [ \gate_LED~output_o\ $end
$var wire 1 \ \alarm~output_o\ $end
$var wire 1 ] \count_out[0]~output_o\ $end
$var wire 1 ^ \count_out[1]~output_o\ $end
$var wire 1 _ \clk~input_o\ $end
$var wire 1 ` \clk~inputclkctrl_outclk\ $end
$var wire 1 a \IDcard~input_o\ $end
$var wire 1 b \password_in[6]~input_o\ $end
$var wire 1 c \password_in[5]~input_o\ $end
$var wire 1 d \password_in[4]~input_o\ $end
$var wire 1 e \password_in[7]~input_o\ $end
$var wire 1 f \Equal0~1_combout\ $end
$var wire 1 g \entrance_sensor~input_o\ $end
$var wire 1 h \password_in[2]~input_o\ $end
$var wire 1 i \password_in[3]~input_o\ $end
$var wire 1 j \password_in[0]~input_o\ $end
$var wire 1 k \password_in[1]~input_o\ $end
$var wire 1 l \Equal0~0_combout\ $end
$var wire 1 m \Selector12~0_combout\ $end
$var wire 1 n \reset~input_o\ $end
$var wire 1 o \reset~inputclkctrl_outclk\ $end
$var wire 1 p \current_state.PASSWORD_REJECTED~q\ $end
$var wire 1 q \count~1_combout\ $end
$var wire 1 r \Selector9~0_combout\ $end
$var wire 1 s \current_state.IDCARD_ACCEPTED~q\ $end
$var wire 1 t \Selector5~0_combout\ $end
$var wire 1 u \current_state.OPEN_GATE~q\ $end
$var wire 1 v \Selector19~0_combout\ $end
$var wire 1 w \current_state.IDLE~q\ $end
$var wire 1 x \count[0]~2_combout\ $end
$var wire 1 y \count~3_combout\ $end
$var wire 1 z \Selector1~1_combout\ $end
$var wire 1 { \Selector17~0_combout\ $end
$var wire 1 | \current_state.ENTER_PASSWORD~q\ $end
$var wire 1 } \current_state.CHECK_PASSWORD~q\ $end
$var wire 1 ~ \Selector14~0_combout\ $end
$var wire 1 !! \current_state.PASSWORD_ACCEPTED~q\ $end
$var wire 1 "! \current_state.SCAN_IDCARD~q\ $end
$var wire 1 #! \Selector7~0_combout\ $end
$var wire 1 $! \current_state.IDCARD_REJECTED~q\ $end
$var wire 1 %! \Selector1~0_combout\ $end
$var wire 1 &! \Selector1~2_combout\ $end
$var wire 1 '! \current_state.ALERT~q\ $end
$var wire 1 (! \Selector2~0_combout\ $end
$var wire 1 )! \entrance_LED_temp~q\ $end
$var wire 1 *! \Selector3~1_combout\ $end
$var wire 1 +! \Selector3~0_combout\ $end
$var wire 1 ,! \Selector3~2_combout\ $end
$var wire 1 -! \password_LED_temp~q\ $end
$var wire 1 .! \Selector4~0_combout\ $end
$var wire 1 /! \IDcard_LED_temp~q\ $end
$var wire 1 0! \gate_LED_temp~feeder_combout\ $end
$var wire 1 1! \gate_LED_temp~q\ $end
$var wire 1 2! \alarm_temp~0_combout\ $end
$var wire 1 3! \alarm_temp~q\ $end
$var wire 1 4! count [1] $end
$var wire 1 5! count [0] $end
$upscope $end
$upscope $end
$enddefinitions $end
#0
$dumpvars
0!
0"
0%
0&
0'
0(
0)
02
03
04
15
x6
17
18
19
1:
1;
1<
0=
0>
0?
0H
0I
0J
0K
0L
0M
0X
0Y
0Z
0[
0\
0]
0^
0_
0`
0a
0b
0c
0d
0e
0f
0g
0h
0i
0j
0k
0l
0m
0n
0o
0p
0q
0r
0s
0t
0u
0v
0w
1x
0y
0z
0{
0|
0}
0~
0!!
0"!
0#!
0$!
0%!
0&!
0'!
0(!
0)!
0*!
0+!
0,!
0-!
0.!
0/!
00!
01!
02!
03!
0*
0+
0,
0-
0.
0/
00
01
0@
0A
0B
0C
0D
0E
0F
0G
0N
0O
04!
05!
1T
1U
1V
0W
1P
1Q
1R
0S
0#
0$
$end
#10000
1"
1=
1_
1W
1`
#20000
0"
0=
0_
0W
0`
#30000
1"
13
1=
1>
1n
1_
1S
1W
1`
1o
#40000
0"
0=
0_
0W
0`
#50000
1"
1=
1_
1W
1`
#60000
0"
0=
0_
0W
0`
#70000
1"
1=
1_
1W
1`
#80000
0"
0=
0_
0W
0`
#90000
1"
1=
1_
1W
1`
#100000
0"
0=
0_
0W
0`
#110000
1"
1&
1,
1-
1/
11
1=
1?
1G
1E
1C
1B
1c
1d
1h
1j
1g
1_
1W
1v
1{
1(!
1l
1f
1`
1w
1|
1)!
1+!
0x
0{
1,!
1X
1I
1%
#120000
0"
0=
0_
0W
0`
#130000
1"
1=
1_
1W
1`
0|
1}
1-!
1~
0+!
0,!
1Y
1J
12
#140000
0"
0=
0_
0W
0`
#150000
1"
1=
1_
1W
1`
0}
1!!
0-!
1*!
0~
1,!
0Y
0J
02
#160000
0"
0=
0_
0W
0`
#170000
1"
1=
1_
1W
1`
0!!
1"!
1-!
1#!
1.!
1Y
1J
12
#180000
0"
0=
0_
0W
0`
#190000
1"
1=
1_
1W
1`
0"!
1$!
1/!
1&!
0#!
0*!
0.!
1Z
1K
1)
#200000
0"
0=
0_
0W
0`
#210000
1"
1=
1_
1W
1`
0$!
1'!
0/!
1x
1%!
0(!
12!
0&!
0,!
1&!
0Z
0K
0)
#220000
0"
0=
0_
0W
0`
#230000
1"
1=
1_
1W
1`
0)!
0-!
13!
02!
1\
0Y
0X
1M
0J
0I
1!
02
0%
#240000
0"
0=
0_
0W
0`
#250000
1"
1=
1_
1W
1`
03!
12!
0\
0M
0!
#260000
0"
0=
0_
0W
0`
#270000
1"
1=
1_
1W
1`
13!
02!
1\
1M
1!
#280000
0"
0=
0_
0W
0`
#290000
1"
1=
1_
1W
1`
03!
12!
0\
0M
0!
#300000
0"
0=
0_
0W
0`
#310000
1"
1=
1_
1W
1`
13!
02!
1\
1M
1!
#320000
0"
0=
0_
0W
0`
#330000
1"
1=
1_
1W
1`
03!
12!
0\
0M
0!
#340000
0"
0=
0_
0W
0`
#350000
1"
1=
1_
1W
1`
13!
02!
1\
1M
1!
#360000
0"
0=
0_
0W
0`
#370000
1"
1=
1_
1W
1`
03!
12!
0\
0M
0!
#380000
0"
0=
0_
0W
0`
#390000
1"
1=
1_
1W
1`
13!
02!
1\
1M
1!
#400000
0"
0=
0_
0W
0`
#410000
1"
1=
1_
1W
1`
03!
12!
0\
0M
0!
#420000
0"
0=
0_
0W
0`
#430000
1"
1=
1_
1W
1`
13!
02!
1\
1M
1!
#440000
0"
0=
0_
0W
0`
#450000
1"
1=
1_
1W
1`
03!
12!
0\
0M
0!
#460000
0"
0=
0_
0W
0`
#470000
1"
0&
0,
0-
0/
01
1=
0?
0G
0E
0C
0B
0c
0d
0h
0j
0g
1_
1W
0v
0%!
0l
0f
0&!
1`
0w
0'!
13!
02!
1\
1M
1!
#480000
0"
0=
0_
0W
0`
#490000
1"
1=
1_
1W
1`
03!
0\
0M
0!
#500000
0"
0=
0_
0W
0`
#510000
1"
1=
1_
1W
1`
#520000
0"
0=
0_
0W
0`
#530000
1"
1=
1_
1W
1`
#540000
0"
0=
0_
0W
0`
#550000
1"
1=
1_
1W
1`
#560000
0"
0=
0_
0W
0`
#570000
1"
1&
1,
1-
1/
11
1(
1=
1?
1G
1E
1C
1B
1H
1a
1c
1d
1h
1j
1g
1_
1W
1v
1{
1(!
1l
1f
1`
1w
1|
1)!
1+!
0x
0{
1,!
1X
1I
1%
#580000
0"
0=
0_
0W
0`
#590000
1"
1=
1_
1W
1`
0|
1}
1-!
1~
0+!
0,!
1Y
1J
12
#600000
0"
0=
0_
0W
0`
#610000
1"
1=
1_
1W
1`
0}
1!!
0-!
1*!
0~
1,!
0Y
0J
02
#620000
0"
0=
0_
0W
0`
#630000
1"
1=
1_
1W
1`
0!!
1"!
1-!
1r
1.!
1Y
1J
12
#640000
0"
0=
0_
0W
0`
#650000
1"
1=
1_
1W
1`
1s
0"!
1/!
0r
1t
1Z
1K
1)
#660000
0"
0=
0_
0W
0`
#670000
1"
1=
1_
1W
1`
0s
1u
10!
#680000
0"
0=
0_
0W
0`
#690000
1"
1=
1_
1W
1`
11!
1[
1L
1'
#700000
0"
0=
0_
0W
0`
#710000
1"
1=
1_
1W
1`
#720000
0"
0=
0_
0W
0`
#730000
1"
1=
1_
1W
1`
#740000
0"
0=
0_
0W
0`
#750000
1"
1=
1_
1W
1`
#760000
0"
0=
0_
0W
0`
#770000
1"
1=
1_
1W
1`
#780000
0"
0=
0_
0W
0`
#790000
1"
1=
1_
1W
1`
#800000
0"
0=
0_
0W
0`
#810000
1"
1=
1_
1W
1`
#820000
0"
0=
0_
0W
0`
#830000
1"
1=
1_
1W
1`
#840000
0"
0=
0_
0W
0`
#850000
1"
1=
1_
1W
1`
#860000
0"
0=
0_
0W
0`
#870000
1"
1=
1_
1W
1`
#880000
0"
0=
0_
0W
0`
#890000
1"
1=
1_
1W
1`
#900000
0"
0&
0,
0-
0/
01
0(
0=
0?
0G
0E
0C
0B
0H
0a
0c
0d
0h
0j
0g
0_
0W
0t
0v
0l
0f
0`
#910000
1"
1=
1_
1W
1`
0u
0w
1x
0(!
0*!
0.!
00!
0,!
#920000
0"
0=
0_
0W
0`
#930000
1"
1=
1_
1W
1`
0)!
0-!
0/!
01!
0[
0Z
0Y
0X
0L
0K
0J
0I
0'
0)
02
0%
#940000
0"
0=
0_
0W
0`
#950000
1"
1=
1_
1W
1`
#960000
0"
0=
0_
0W
0`
#970000
1"
1=
1_
1W
1`
#980000
0"
0=
0_
0W
0`
#990000
1"
1=
1_
1W
1`
